Capítulo 2 Indicadores radares/frota | Relatório Velocidades
…
Com isso foi feito uma lista de todos esses indicadores para que então seja utilizado a função reduce() de forma a não haver nove colunas com as siglas das UF e para que cada tupla represente apenas uma UF e todos os seus respectivos indicadores.

ind_rad <- list(I1,I2,I3,I4,I5,I6,I7,I8,I9)
Indicador_radares <- reduce(ind_rad, full_join, by = "SiglaUf")
Indicador_radares

## # A tibble: 27 × 10
##    SiglaUf    i1     i2     i3    i4      i5      i6      i7       i8      i9
##    <chr>   <dbl>  <dbl>  <dbl> <dbl>   <dbl>   <dbl>   <dbl>    <dbl>   <dbl>
##  1 AC      0.428  0.371 0.0571 1     0.228    0.171  NA       0.0285  NA     
##  2 AL      1.08  NA     1.08   0.941 0.0274   0.740   0.292  NA        0.0183
##  3 AM      0.115 NA     0.115  0.846 0.00885 NA       0.0619 NA        0.0442
##  4 AP      1.44   1.32  0.124  0.943 0.247   NA       1.20   NA       NA     
##  5 BA      1.73   0.773 0.953  0.963 0.494    0.393   0.580   0.0879   0.141 
##  6 CE      3.75   1.39  2.36   0.863 0.567    0.682   2.30   NA        0.200 
##  7 DF      7.50   1.58  5.92   0.965 1.55     1.16    3.62    0.202    0.922 
##  8 ES      1.69   0.110 1.58   0.947 0.246    0.0509  1.23    0.00424  0.157 
##  9 GO      4.60   2.00  2.60   0.911 1.11     0.681   1.97    0.108    0.679 
## 10 MA      0.844  0.502 0.342  0.839 0.159    0.206   0.309  NA        0.0188
## # ℹ 17 more rows
