Capítulo 4 Indicador Mortalidade | Relatório Velocidades
…
4.3 Cálculo do Indicador

Foi feito a união de ambas as bases e gerado uma nova coluna que representaria o valor do indicador.

Indicador_mortal <- (full_join(mortes_2022_porUF, frota_2022_TOTAL, by = "uf" ))

Indicador_mortal <- Indicador_mortal %>% 
  mutate(Inicador = (Quantidade_de_obitos/frota)*(10^4))

Indicador_mortal [,c(3,8)]

## # A tibble: 27 × 2
##    uf    Inicador
##    <chr>    <dbl>
##  1 AC        3.08
##  2 AL        5.58
##  3 AP        4.51
##  4 AM        4.09
##  5 BA        5.06
##  6 CE        3.87
##  7 DF        1.71
##  8 ES        3.66
##  9 GO        3.81
## 10 MA        6.59
## # ℹ 17 more rows
